ussie • ussie
…
conflicted::conflict_prefer("filter", "dplyr")
#> [conflicted] Will prefer dplyr::filter over any other package

You can use the ussie package to work with data for league-play matches for European Football Leagues. The data is provided by James Curley’s engsoccerdata package: the CRAN version has results through summer 2016; the GitHub version has more-recent results.

To find out which leagues are available, use uss_countries():

uss_countries()
#> [1] "england" "germany" "holland" "italy"   "spain"

To get the data for a given league, use uss_get_matches() with the country:

uss_get_matches("england")
#> # A tibble: 192,004 × 8
#>    country  tier season date       home         visitor goals_home goals_visitor
#>    <chr>   <int>  <int> <date>     <chr>        <chr>        <int>         <int>
#>  1 England     1   1888 1888-12-15 Accrington … Aston …          1             1
#>  2 England     1   1888 1889-01-19 Accrington … Blackb…          0             2
#>  3 England     1   1888 1889-03-23 Accrington … Bolton…          2             3
#>  4 England     1   1888 1888-12-01 Accrington … Burnley          5             1
#>  5 England     1   1888 1888-10-13 Accrington … Derby …          6             2
#>  6 England     1   1888 1888-12-29 Accrington … Everton          3             1
#>  7 England     1   1888 1889-01-26 Accrington … Notts …          1             2
#>  8 England     1   1888 1888-10-20 Accrington … Presto…          0             0
#>  9 England     1   1888 1889-04-20 Accrington … Stoke …          2             0
#> 10 England     1   1888 1888-11-24 Accrington … West B…          2             1
#> # … with 191,994 more rows

uss_get_matches() also accepts ... arguments; these are passed to dplyr::filter():

uss_get_matches(
  "england", 
  season == 1990, 
  home == "Leeds United" | visitor == "Leeds United"
)
#> # A tibble: 38 × 8
#>    country  tier season date       home         visitor goals_home goals_visitor
#>    <chr>   <int>  <int> <date>     <chr>        <chr>        <int>         <int>
#>  1 England     1   1990 1991-03-17 Arsenal      Leeds …          2             0
#>  2 England     1   1990 1990-10-27 Aston Villa  Leeds …          0             0
#>  3 England     1   1990 1991-03-30 Chelsea      Leeds …          1             2
#>  4 England     1   1990 1990-11-24 Coventry Ci… Leeds …          1             1
#>  5 England     1   1990 1990-10-06 Crystal Pal… Leeds …          1             1
#>  6 England     1   1990 1991-04-23 Derby County Leeds …          0             1
#>  7 England     1   1990 1990-08-25 Everton      Leeds …          2             3
#>  8 England     1   1990 1990-09-29 Leeds United Arsenal          2             2
#>  9 England     1   1990 1991-05-04 Leeds United Aston …          5             2
#> 10 England     1   1990 1990-12-26 Leeds United Chelsea          4             1
#> # … with 28 more rows

In a matches tibble, each row is a unique football match. To make calculations over the course of a team’s season, it may be useful to provide an additional form: a teams_matches tibble. In this form, each row is a match from the perpsective of one of its teams. Thus, each match can be represented by two rows, one for each team.

We can get teams_matches tibble using uss_make_teams_matches():

england_1_1990 <-
  uss_get_matches("england", tier == 1, season == 1990) |>
  uss_make_teams_matches()

england_1_1990
#> # A tibble: 760 × 9
#>    country  tier season team    date       at_home opponent          goals_for
#>    <chr>   <int>  <int> <chr>   <date>     <lgl>   <chr>                 <int>
#>  1 England     1   1990 Arsenal 1990-08-25 FALSE   Wimbledon                 3
#>  2 England     1   1990 Arsenal 1990-08-29 TRUE    Luton Town                2
#>  3 England     1   1990 Arsenal 1990-09-01 TRUE    Tottenham Hotspur         0
#>  4 England     1   1990 Arsenal 1990-09-08 FALSE   Everton                   1
#>  5 England     1   1990 Arsenal 1990-09-15 TRUE    Chelsea                   4
#>  6 England     1   1990 Arsenal 1990-09-22 FALSE   Nottingham Forest         2
#>  7 England     1   1990 Arsenal 1990-09-29 FALSE   Leeds United              2
#>  8 England     1   1990 Arsenal 1990-10-06 TRUE    Norwich City              2
#>  9 England     1   1990 Arsenal 1990-10-20 FALSE   Manchester United         1
#> 10 England     1   1990 Arsenal 1990-10-27 TRUE    Sunderland                1
#> # … with 750 more rows, and 1 more variable: goals_against <int>
…
